# Blender v2.69 (sub 0) OBJ File: 'house_fireplace.blend'
# www.blender.org
mtllib house_fireplace.mtl
o Cube
v 0.048712 -1.000000 0.000000
v -1.451288 -1.000000 0.000000
v -1.451287 1.000000 0.000000
v 0.048713 1.000000 0.000000
v 0.048712 -0.833266 1.000000
v -1.451288 -0.627801 1.000000
v -1.451287 0.627802 1.000000
v 0.048713 0.833266 1.000000
v 0.048712 -0.448124 1.416322
v -0.892510 -0.448124 1.416322
v -0.892509 0.448124 1.416322
v 0.048713 0.448124 1.416322
v 0.048713 0.448124 6.416322
v -0.892509 0.448124 6.416322
v -0.892510 -0.448124 6.416322
v 0.048712 -0.448124 6.416322
v -0.045410 0.358499 6.416322
v -0.798387 0.358499 6.416322
v -0.798388 -0.358499 6.416322
v -0.045410 -0.358499 6.416322
v -0.045410 0.358499 6.519534
v -0.798387 0.358499 6.519534
v -0.798388 -0.358499 6.519534
v -0.045410 -0.358499 6.519534
v 0.180484 0.573599 6.519534
v -1.024280 0.573599 6.519534
v -1.024281 -0.573599 6.519534
v 0.180483 -0.573599 6.519534
v -0.180946 0.229440 6.846375
v -0.662851 0.229440 6.846375
v -0.662852 -0.229439 6.846375
v -0.180946 -0.229439 6.846375
vt 0.000000 0.524356
vt 0.000000 -0.225644
vt -1.000000 -0.225644
vt -1.000000 0.524357
vt 0.524356 0.000000
vt -0.225644 0.000000
vt 0.053746 0.208161
vt 0.524356 0.208161
vt 0.524356 0.500000
vt 0.524356 1.000000
vt -0.225644 0.500000
vt 0.000000 0.500000
vt -0.186100 1.000000
vt -0.813901 1.000000
vt -1.000000 0.500000
vt 0.774356 0.500000
vt 0.774356 1.000000
vt 1.524356 1.000000
vt 0.916633 0.000000
vt 1.000000 -0.500000
vt 0.000000 -0.500000
vt 0.083367 0.000000
vt -0.225644 -0.500000
vt 0.524357 0.500000
vt 0.186099 0.774356
vt 0.813900 0.774356
vt 0.724062 1.053745
vt 0.275938 1.053746
vt 0.275938 0.208161
vt 0.724062 0.208161
vt 0.774356 0.000000
vt 1.524356 0.000000
vt 1.524356 0.208161
vt 1.053745 0.208161
vt 0.053745 0.208161
vt 0.524356 2.708161
vt 0.053745 2.708161
vt 0.275938 2.708161
vt 0.724062 2.708161
vt 0.053746 2.708161
vt 0.724062 0.053745
vt 0.724062 0.524356
vt 0.679250 0.477295
vt 0.679250 0.100806
vt 0.100806 0.708161
vt 0.477295 0.708161
vt 0.477295 0.759767
vt 0.100806 0.759767
vt 0.275938 0.524356
vt 0.320750 0.477295
vt 0.275938 0.053746
vt 0.320750 0.100807
vt 0.679250 0.708161
vt 0.320750 0.708161
vt 0.320750 0.759767
vt 0.679250 0.759767
vt 0.100807 0.708161
vt 0.100807 0.759767
vt 0.786799 0.590241
vt 0.786799 -0.012141
vt 0.786799 0.987859
vt 0.786799 1.590241
vt 0.614720 1.409527
vt 0.614720 1.168574
vt 0.213200 0.590242
vt 0.213200 -0.012140
vt 0.385280 0.168574
vt 0.614720 0.168574
vt 0.614720 0.409527
vt 0.385280 0.409527
vt 0.213200 0.987860
vt 0.385280 1.168574
usemtl Material
s off
f 1/1 2/2 3/3 4/4
f 8/5 7/6 11/7 12/8
f 1/9 5/10 2/11
f 2/12 6/13 7/14 3/15
f 3/16 7/17 8/18
f 5/19 1/20 4/21 8/22
f 5/5 6/6 2/23
f 4/24 3/11 8/10
f 7/25 6/26 10/27 11/28
f 5/19 8/22 12/29 9/30
f 6/31 5/32 9/33 10/34
f 10/35 9/8 16/36 15/37
f 9/30 12/29 13/38 16/39
f 11/29 10/30 15/39 14/38
f 12/8 11/7 14/40 13/36
f 15/41 16/42 20/43 19/44
f 19/45 20/46 24/47 23/48
f 16/42 13/49 17/50 20/43
f 14/51 15/41 19/44 18/52
f 13/49 14/51 18/52 17/50
f 20/53 17/54 21/55 24/56
f 18/54 19/53 23/56 22/55
f 17/46 18/57 22/58 21/47
usemtl Material_corrugated_tin.jpg
f 23/44 24/43 28/59 27/60
f 27/61 28/62 32/63 31/64
f 24/43 21/50 25/65 28/59
f 22/52 23/44 27/60 26/66
f 21/50 22/52 26/66 25/65
f 30/67 31/68 32/69 29/70
f 28/59 25/65 29/70 32/69
f 26/71 27/61 31/64 30/72
f 25/65 26/66 30/67 29/70
