# Blender v2.69 (sub 0) OBJ File: 'house_roof_sloped.blend'
# www.blender.org
mtllib house_roof_sloped.mtl
o Cube
v 1.000000 -1.000000 0.000000
v -1.000000 -1.000000 0.000000
v -1.000000 1.000000 0.000000
v 1.000000 1.000000 0.000000
v 0.999999 -0.754286 1.000000
v -1.000001 -0.754285 1.000000
vt 0.000000 0.000000
vt 0.000000 -1.000000
vt -1.000000 -1.000000
vt -1.000000 0.000000
vt 0.000000 0.500000
vt -0.000000 1.000000
vt -1.000000 1.000000
vt -1.000000 0.500000
vt 0.938571 0.938571
vt 0.938571 0.061429
vt 1.938571 0.061429
vt 1.938571 0.938571
vt 0.877143 0.000000
vt 1.000000 -0.500000
vt 0.000000 -0.500000
vt -0.122858 1.000000
usemtl Material
s off
f 1/1 2/2 3/3 4/4
f 1/5 5/6 6/7 2/8
f 3/9 6/10 5/11 4/12
f 5/13 1/14 4/15
f 2/5 6/16 3/8
